{
  "dirty": false,
  "raw": "v0.5.1-2475-g8e12963c",
  "hash": "g8e12963c",
  "distance": 2475,
  "tag": "v0.5.1",
  "semver": {
    "raw": "v0.5.1",
    "major": 0,
    "minor": 5,
    "patch": 1,
    "prerelease": [],
    "build": [],
    "version": "0.5.1"
  },
  "suffix": "2475-g8e12963c",
  "semverString": "0.5.1+2475.g8e12963c"
}